<?xml version="1.0" encoding="UTF-8" standalone="no"?>
<svg
   xmlns:dc="http://purl.org/dc/elements/1.1/"
   xmlns:cc="http://creativecommons.org/ns#"
   xmlns:rdf="http://www.w3.org/1999/02/22-rdf-syntax-ns#"
   xmlns:svg="http://www.w3.org/2000/svg"
   xmlns="http://www.w3.org/2000/svg"
   xmlns:sodipodi="http://sodipodi.sourceforge.net/DTD/sodipodi-0.dtd"
   xmlns:inkscape="http://www.inkscape.org/namespaces/inkscape"
   height="25"
   width="25"
   id="svg4750"
   version="1.1"
   inkscape:version="0.91 r13725"
   sodipodi:docname="border-danger-top-right.svg">
  <metadata
     id="metadata4758">
    <rdf:RDF>
      <cc:Work
         rdf:about="">
        <dc:format>image/svg+xml</dc:format>
        <dc:type
           rdf:resource="http://purl.org/dc/dcmitype/StillImage" />
        <dc:title></dc:title>
      </cc:Work>
    </rdf:RDF>
  </metadata>
  <defs
     id="defs4756" />
  <sodipodi:namedview
     pagecolor="#ffffff"
     bordercolor="#666666"
     borderopacity="1"
     objecttolerance="10"
     gridtolerance="10"
     guidetolerance="10"
     inkscape:pageopacity="0"
     inkscape:pageshadow="2"
     inkscape:window-width="1600"
     inkscape:window-height="876"
     id="namedview4754"
     showgrid="false"
     inkscape:zoom="9.44"
     inkscape:cx="-5.720339"
     inkscape:cy="8.2627119"
     inkscape:window-x="0"
     inkscape:window-y="24"
     inkscape:window-maximized="1"
     inkscape:current-layer="svg4750" />
  <path
     style="fill:#ff386a;fill-opacity:1;stroke:#ff386a;stroke-width:0.10593221;stroke-opacity:1"
     d="m 22.033898,6.440678 0,-3.4957627 -3.495762,0 -3.495763,0 0,-1.4300848 0,-1.43008474 4.978813,0 4.978814,0 0,4.92584744 0,4.9258475 -1.483051,0 -1.483051,0 0,-3.4957627 z"
     id="path5300"
     inkscape:connector-curvature="0" />
  <path
     style="fill:#ff386a;fill-opacity:1;stroke:#ff386a;stroke-width:0.10593221;stroke-opacity:1"
     d="m 0,20 0,-4.978814 1.4830508,0 1.4830509,0 0,3.495763 0,3.495763 3.4957627,0 3.4957627,0 0,1.483051 0,1.483051 -4.9788135,0 L 0,24.978814 0,20 Z"
     id="path5304"
     inkscape:connector-curvature="0" />
</svg>
